-240 176 -128 424
40 -80 -120 -160 560
-80 -24 64 -800
-32 -616 -296 24
-512 -128 336
-400 -8 -48 -32 -40 -48 -56 304
-600 -320 56
-112 -144 544 -24 136
-160 80 -528 -8 -16 -24 -88 32
-8 -16 -24 -32 -40 -48 -720 48
-64 920
